logs/coremark/coremark_debug_performance_pass.log

------------------------ Benchmark Output ------------------------
Starting benchmark on Async RISC-V...
Initialized list:
[0000,8080][0001,5b5b][0002,5252][0003,4949][0004,4040][0005,3f3f][0007,2d2d][000f,6d6d][0017,2d2d][0108,2424][0110,6464][0118,2424][0209,1b1b][0211,5b5b][0219,1b1b][030a,1212][0312,5252][031a,1212][040b,0909][0413,4949][041b,0909][050c,0000][0514,4040][051c,0000][060d,7f7f][0615,3f3f][0706,3636][070e,7676][0716,3636][7fff,ffff]
Matrix A [9x9]:
3,6,12,32,130,220,190,144,146
20,22,24,26,28,30,32,34,36
38,40,42,44,46,48,50,52,54
56,58,60,62,64,66,68,70,72
74,76,78,80,82,84,86,88,90
92,94,96,98,100,102,104,106,108
110,112,114,116,118,120,122,124,126
128,130,132,134,136,138,140,142,144
146,148,150,152,154,156,158,160,162
Matrix B [9x9]:
2,4,9,28,125,726,5047,-25208,-30327
24330,5387,-1012,-13299,10254,22543,-32752,-32751,18
19,20,21,22,23,24,25,26,27
28,29,30,31,32,33,34,35,36
37,38,39,40,41,42,43,44,45
46,47,48,49,50,51,52,53,54
55,56,57,58,59,60,61,62,63
64,65,66,67,68,69,70,71,72
73,74,75,76,77,78,79,80,81
State: 666,0
intpat: & 80000af4
floatpat: & 80000b04
scipat: & 80000b14
errpat: & 80000b24
State Addition [0]: data=5012 (& 80000a48)
State Addition [5]: data=5012 (& 80000a48)
State Addition [10]: data=35.54400 (& 80000a18)
State Addition [19]: data=35.54400 (& 80000a18)
State Addition [28]: data=5.500e+3 (& 800009e8)
State Addition [37]: data=5.500e+3 (& 800009e8)
State Addition [46]: data=T0.3e-1F (& 800009b8)
State Addition [55]: data=1234 (& 80000a50)
State Addition [60]: data=1234 (& 80000a50)
State Addition [65]: data=1234 (& 80000a50)
State Addition [70]: data=.1234500 (& 80000a24)
State Addition [79]: data=.1234500 (& 80000a24)
State Addition [88]: data=-.123e-2 (& 800009f4)
State Addition [97]: data=-.123e-2 (& 800009f4)
State Addition [106]: data=-T.T++Tq (& 800009c4)
State Addition [115]: data=-874 (& 80000a58)
State Addition [120]: data=-874 (& 80000a58)
State Addition [125]: data=-874 (& 80000a58)
State Addition [130]: data=-110.700 (& 80000a30)
State Addition [139]: data=-110.700 (& 80000a30)
State Addition [148]: data=-87e+832 (& 80000a00)
State Addition [157]: data=-87e+832 (& 80000a00)
State Addition [166]: data=1T3.4e4z (& 800009d0)
State Addition [175]: data=+122 (& 80000a60)
State Addition [180]: data=+122 (& 80000a60)
State Addition [185]: data=+122 (& 80000a60)
State Addition [190]: data=+0.64400 (& 80000a3c)
State Addition [199]: data=+0.64400 (& 80000a3c)
State Addition [208]: data=+0.6e-12 (& 80000a0c)
State Addition [217]: data=+0.6e-12 (& 80000a0c)
State Addition [226]: data=34.0e-T^ (& 800009dc)
State Addition [235]: data=5012 (& 80000a48)
State Addition [240]: data=5012 (& 80000a48)
State Addition [245]: data=5012 (& 80000a48)
State Addition [250]: data=35.54400 (& 80000a18)
State Addition [259]: data=35.54400 (& 80000a18)
State Addition [268]: data=5.500e+3 (& 800009e8)
State Addition [277]: data=5.500e+3 (& 800009e8)
State Addition [286]: data=T0.3e-1F (& 800009b8)
State Addition [295]: data=1234 (& 80000a50)
State Addition [300]: data=1234 (& 80000a50)
State Addition [305]: data=1234 (& 80000a50)
State Addition [310]: data=.1234500 (& 80000a24)
State Addition [319]: data=.1234500 (& 80000a24)
State Addition [328]: data=-.123e-2 (& 800009f4)
State Addition [337]: data=-.123e-2 (& 800009f4)
State Addition [346]: data=-T.T++Tq (& 800009c4)
State Addition [355]: data=-874 (& 80000a58)
State Addition [360]: data=-874 (& 80000a58)
State Addition [365]: data=-874 (& 80000a58)
State Addition [370]: data=-110.700 (& 80000a30)
State Addition [379]: data=-110.700 (& 80000a30)
State Addition [388]: data=-87e+832 (& 80000a00)
State Addition [397]: data=-87e+832 (& 80000a00)
State Addition [406]: data=1T3.4e4z (& 800009d0)
State Addition [415]: data=+122 (& 80000a60)
State Addition [420]: data=+122 (& 80000a60)
State Addition [425]: data=+122 (& 80000a60)
State Addition [430]: data=+0.64400 (& 80000a3c)
State Addition [439]: data=+0.64400 (& 80000a3c)
State Addition [448]: data=+0.6e-12 (& 80000a0c)
State Addition [457]: data=+0.6e-12 (& 80000a0c)
State Addition [466]: data=34.0e-T^ (& 800009dc)
State Addition [475]: data=5012 (& 80000a48)
State Addition [480]: data=5012 (& 80000a48)
State Addition [485]: data=5012 (& 80000a48)
State Addition [490]: data=35.54400 (& 80000a18)
State Addition [499]: data=35.54400 (& 80000a18)
State Addition [508]: data=5.500e+3 (& 800009e8)
State Addition [517]: data=5.500e+3 (& 800009e8)
State Addition [526]: data=T0.3e-1F (& 800009b8)
State Addition [535]: data=1234 (& 80000a50)
State Addition [540]: data=1234 (& 80000a50)
State Addition [545]: data=1234 (& 80000a50)
State Addition [550]: data=.1234500 (& 80000a24)
State Addition [559]: data=.1234500 (& 80000a24)
State Addition [568]: data=-.123e-2 (& 800009f4)
State Addition [577]: data=-.123e-2 (& 800009f4)
State Addition [586]: data=-T.T++Tq (& 800009c4)
State Addition [595]: data=-874 (& 80000a58)
State Addition [600]: data=-874 (& 80000a58)
State Addition [605]: data=-874 (& 80000a58)
State Addition [610]: data=-110.700 (& 80000a30)
State Addition [619]: data=-110.700 (& 80000a30)
State Addition [628]: data=-87e+832 (& 80000a00)
State Addition [637]: data=-87e+832 (& 80000a00)
State Addition [646]: data=1T3.4e4z (& 800009d0)
State Addition [655]: data=+122 (& 80000a60)
State Input: 5012,5012,35.54400,35.54400,5.500e+3,5.500e+3,T0.3e-1F,1234,1234,1234,.1234500,.1234500,-.123e-2,-.123e-2,-T.T++Tq,-874,-874,-874,-110.700,-110.700,-87e+832,-87e+832,1T3.4e4z,+122,+122,+122,+0.64400,+0.64400,+0.6e-12,+0.6e-12,34.0e-T^,5012,5012,5012,35.54400,35.54400,5.500e+3,5.500e+3,T0.3e-1F,1234,1234,1234,.1234500,.1234500,-.123e-2,-.123e-2,-T.T++Tq,-874,-874,-874,-110.700,-110.700,-87e+832,-87e+832,1T3.4e4z,+122,+122,+122,+0.64400,+0.64400,+0.6e-12,+0.6e-12,34.0e-T^,5012,5012,5012,35.54400,35.54400,5.500e+3,5.500e+3,T0.3e-1F,1234,1234,1234,.1234500,.1234500,-.123e-2,-.123e-2,-T.T++Tq,-874,-874,-874,-110.700,-110.700,-87e+832,-87e+832,1T3.4e4z,+122,
List find 0: [1,0,1]
List find 1: [1,0,2]
List find 2: [1,0,3]
List find 3: [1,0,4]
List find 4: [2,0,5]
List find 5: [2,1,5]
List find 6: [2,1,6]
List find 7: [2,2,6]
List find 8: [2,3,6]
List find 9: [2,4,6]
List find 10: [2,5,6]
List find 11: [2,6,6]
List find 12: [2,7,6]
List find 13: [2,8,6]
List find 14: [2,8,7]
List find 15: [2,9,7]
List find 16: [3,10,7]
List find 17: [3,11,7]
List find 18: [4,12,7]
List find 19: [4,13,7]
List find 20: [5,14,7]
List find 21: [5,15,7]
List find 22: [5,15,8]
List find 23: [5,16,8]
List find 24: [6,17,8]
List find 25: [6,18,8]
List find 26: [7,19,8]
List find 27: [7,20,8]
List find 28: [8,21,8]
List find 29: [8,22,8]
List find 30: [9,23,8]
List find 31: [9,24,8]
List find 32: [10,25,8]
List find 33: [10,26,8]
List find 34: [11,27,8]
List find 35: [11,28,8]
List find 36: [12,29,8]
List find 37: [12,30,8]
List find 38: [13,31,8]
List find 39: [13,32,8]
List find 40: [14,33,8]
List find 41: [14,34,8]
List find 42: [15,35,8]
List find 43: [15,36,8]
List find 44: [16,37,8]
List find 45: [16,38,8]
List find 46: [17,39,8]
List find 47: [17,40,8]
List find 48: [18,41,8]
List find 49: [18,42,8]
List find 50: [19,43,8]
List find 51: [19,44,8]
List find 52: [20,45,8]
List find 53: [20,46,8]
List find 54: [21,47,8]
List find 55: [21,48,8]
List find 56: [22,49,8]
List find 57: [22,50,8]
List find 58: [23,51,8]
List find 59: [23,52,8]
List find 60: [24,53,8]
List find 61: [24,54,8]
List find 62: [25,55,8]
List find 63: [25,56,8]
List find 64: [26,57,8]
List find 65: [26,58,8]
List find 66: [27,59,8]
List find 67: [27,60,8]
List find 68: [28,61,8]
List find 69: [28,62,8]
List find 70: [29,63,8]
List find 71: [29,64,8]
List find 72: [30,65,8]
List find 73: [30,66,8]
List find 74: [31,67,8]
List find 75: [31,68,8]
List find 76: [32,69,8]
List find 77: [32,70,8]
List find 78: [33,71,8]
List find 79: [33,72,8]
List find 80: [34,73,8]
List find 81: [34,74,8]
List find 82: [35,75,8]
List find 83: [35,76,8]
List find 84: [36,77,8]
List find 85: [36,78,8]
List find 86: [37,79,8]
List find 87: [37,80,8]
List find 88: [38,81,8]
List find 89: [38,82,8]
List find 90: [39,83,8]
List find 91: [39,84,8]
List find 92: [40,85,8]
List find 93: [40,86,8]
List find 94: [41,87,8]
List find 95: [41,88,8]
List find 96: [42,89,8]
List find 97: [42,90,8]
List find 98: [43,91,8]
List find 99: [43,92,8]
List find 100: [44,93,8]
List find 101: [44,94,8]
Matrix matrix_add_const [9x9]:
20,23,29,49,147,237,207,161,163
37,39,41,43,45,47,49,51,53
55,57,59,61,63,65,67,69,71
73,75,77,79,81,83,85,87,89
91,93,95,97,99,101,103,105,107
109,111,113,115,117,119,121,123,125
127,129,131,133,135,137,139,141,143
145,147,149,151,153,155,157,159,161
163,165,167,169,171,173,175,177,179
Matrix matrix_mul_const [9x9]:
340,391,493,833,2499,4029,3519,2737,2771
629,663,697,731,765,799,833,867,901
935,969,1003,1037,1071,1105,1139,1173,1207
1241,1275,1309,1343,1377,1411,1445,1479,1513
1547,1581,1615,1649,1683,1717,1751,1785,1819
1853,1887,1921,1955,1989,2023,2057,2091,2125
2159,2193,2227,2261,2295,2329,2363,2397,2431
2465,2499,2533,2567,2601,2635,2669,2703,2737
2771,2805,2839,2873,2907,2941,2975,3009,3043
Matrix matrix_mul_vect [9x9]:
-7764858,-2604086,-3496778,-4389470,-5282162,-6174854,-7067546,-7960238,-8852930
629,663,697,731,765,799,833,867,901
935,969,1003,1037,1071,1105,1139,1173,1207
1241,1275,1309,1343,1377,1411,1445,1479,1513
1547,1581,1615,1649,1683,1717,1751,1785,1819
1853,1887,1921,1955,1989,2023,2057,2091,2125
2159,2193,2227,2261,2295,2329,2363,2397,2431
2465,2499,2533,2567,2601,2635,2669,2703,2737
2771,2805,2839,2873,2907,2941,2975,3009,3043
Matrix matrix_mul_matrix [9x9]:
611482,176826,30742,-250486,294166,589826,-594546,-1198630,-546330
964582,226208,-22839,-501000,421485,923322,-1072977,-2192044,-1103127
1408354,329168,-34845,-733704,614607,1348590,-1565115,-3228628,-1641885
1852126,432128,-46851,-966408,807729,1773858,-2057253,-4265212,-2180643
2295898,535088,-58857,-1199112,1000851,2199126,-2549391,-5301796,-2719401
2739670,638048,-70863,-1431816,1193973,2624394,-3041529,-6338380,-3258159
3183442,741008,-82869,-1664520,1387095,3049662,-3533667,-7374964,-3796917
3627214,843968,-94875,-1897224,1580217,3474930,-4025805,-8411548,-4335675
4070986,946928,-106881,-2129928,1773339,3900198,-4517943,-9448132,-4874433
Matrix matrix_mul_matrix_bitextract [9x9]:
5199,2427,3299,4674,2657,4878,1515,3287,3387
2345,5067,3065,5531,4947,5212,4488,4860,3011
4903,5027,5107,4986,5176,6053,4948,4628,4862
4914,5464,2460,4792,4092,4585,5077,3636,5355
2132,6367,3633,6684,5464,3200,2663,4074,2482
3142,4215,5848,5175,4920,3356,3146,5090,2743
2911,4419,5809,5708,1361,2308,2755,4596,6319
2847,3849,5701,5149,2927,5128,6701,2403,5919
3127,2968,4746,4109,2392,3808,4499,4749,2729
Matrix matrix_add_const [9x9]:
156,159,165,185,283,373,343,297,299
173,175,177,179,181,183,185,187,189
191,193,195,197,199,201,203,205,207
209,211,213,215,217,219,221,223,225
227,229,231,233,235,237,239,241,243
245,247,249,251,253,255,257,259,261
263,265,267,269,271,273,275,277,279
281,283,285,287,289,291,293,295,297
299,301,303,305,307,309,311,313,315
Matrix matrix_mul_const [9x9]:
23868,24327,25245,28305,43299,57069,52479,45441,45747
26469,26775,27081,27387,27693,27999,28305,28611,28917
29223,29529,29835,30141,30447,30753,31059,31365,31671
31977,32283,32589,32895,33201,33507,33813,34119,34425
34731,35037,35343,35649,35955,36261,36567,36873,37179
37485,37791,38097,38403,38709,39015,39321,39627,39933
40239,40545,40851,41157,41463,41769,42075,42381,42687
42993,43299,43605,43911,44217,44523,44829,45135,45441
45747,46053,46359,46665,46971,47277,47583,47889,48195
Matrix matrix_mul_vect [9x9]:
-14509642,-9348870,-10241562,-11134254,-12026946,-12919638,-13812330,-14705022,-15597714
26469,26775,27081,27387,27693,27999,28305,28611,28917
29223,29529,29835,30141,30447,30753,31059,31365,31671
31977,32283,32589,32895,33201,33507,33813,34119,34425
34731,35037,35343,35649,35955,36261,36567,36873,37179
37485,37791,38097,38403,38709,39015,39321,39627,39933
40239,40545,40851,41157,41463,41769,42075,42381,42687
42993,43299,43605,43911,44217,44523,44829,45135,45441
45747,46053,46359,46665,46971,47277,47583,47889,48195
Matrix matrix_mul_matrix [9x9]:
3964426,954746,-59970,-2008694,1753310,3802962,-4312922,-9030598,-4616946
4317526,1004128,-113551,-2259208,1880629,4136458,-4791353,-10024012,-5173743
4761298,1107088,-125557,-2491912,2073751,4561726,-5283491,-11060596,-5712501
5205070,1210048,-137563,-2724616,2266873,4986994,-5775629,-12097180,-6251259
5648842,1313008,-149569,-2957320,2459995,5412262,-6267767,-13133764,-6790017
6092614,1415968,-161575,-3190024,2653117,5837530,-6759905,-14170348,-7328775
6536386,1518928,-173581,-3422728,2846239,6262798,-7252043,-15206932,-7867533
6980158,1621888,-185587,-3655432,3039361,6688066,-7744181,-16243516,-8406291
7423930,1724848,-197593,-3888136,3232483,7113334,-8236319,-17280100,-8945049
Matrix matrix_mul_matrix_bitextract [9x9]:
4404,3869,5165,7020,5199,5030,1987,4373,5587
3554,4635,3898,4687,5312,3780,3830,4266,2789
2967,4695,6387,5756,2405,3152,3023,3716,5349
4091,2085,4081,3757,3089,3632,6467,3075,7895
2447,3236,5622,5045,2694,3148,5257,6357,2633
4026,4952,5490,4625,3292,3019,5828,3991,3961
2811,4923,5082,3702,4505,3487,3312,3328,5638
3698,2930,1945,6900,4253,7030,2867,5076,4731
2071,5807,3352,4334,6063,6467,2470,4733,4172
Matrix matrix_add_const [9x9]:
20,23,29,49,147,237,207,161,163
37,39,41,43,45,47,49,51,53
55,57,59,61,63,65,67,69,71
73,75,77,79,81,83,85,87,89
91,93,95,97,99,101,103,105,107
109,111,113,115,117,119,121,123,125
127,129,131,133,135,137,139,141,143
145,147,149,151,153,155,157,159,161
163,165,167,169,171,173,175,177,179
Matrix matrix_mul_const [9x9]:
340,391,493,833,2499,4029,3519,2737,2771
629,663,697,731,765,799,833,867,901
935,969,1003,1037,1071,1105,1139,1173,1207
1241,1275,1309,1343,1377,1411,1445,1479,1513
1547,1581,1615,1649,1683,1717,1751,1785,1819
1853,1887,1921,1955,1989,2023,2057,2091,2125
2159,2193,2227,2261,2295,2329,2363,2397,2431
2465,2499,2533,2567,2601,2635,2669,2703,2737
2771,2805,2839,2873,2907,2941,2975,3009,3043
Matrix matrix_mul_vect [9x9]:
-7764858,-2604086,-3496778,-4389470,-5282162,-6174854,-7067546,-7960238,-8852930
629,663,697,731,765,799,833,867,901
935,969,1003,1037,1071,1105,1139,1173,1207
1241,1275,1309,1343,1377,1411,1445,1479,1513
1547,1581,1615,1649,1683,1717,1751,1785,1819
1853,1887,1921,1955,1989,2023,2057,2091,2125
2159,2193,2227,2261,2295,2329,2363,2397,2431
2465,2499,2533,2567,2601,2635,2669,2703,2737
2771,2805,2839,2873,2907,2941,2975,3009,3043
Matrix matrix_mul_matrix [9x9]:
611482,176826,30742,-250486,294166,589826,-594546,-1198630,-546330
964582,226208,-22839,-501000,421485,923322,-1072977,-2192044,-1103127
1408354,329168,-34845,-733704,614607,1348590,-1565115,-3228628,-1641885
1852126,432128,-46851,-966408,807729,1773858,-2057253,-4265212,-2180643
2295898,535088,-58857,-1199112,1000851,2199126,-2549391,-5301796,-2719401
2739670,638048,-70863,-1431816,1193973,2624394,-3041529,-6338380,-3258159
3183442,741008,-82869,-1664520,1387095,3049662,-3533667,-7374964,-3796917
3627214,843968,-94875,-1897224,1580217,3474930,-4025805,-8411548,-4335675
4070986,946928,-106881,-2129928,1773339,3900198,-4517943,-9448132,-4874433
Matrix matrix_mul_matrix_bitextract [9x9]:
5199,2427,3299,4674,2657,4878,1515,3287,3387
2345,5067,3065,5531,4947,5212,4488,4860,3011
4903,5027,5107,4986,5176,6053,4948,4628,4862
4914,5464,2460,4792,4092,4585,5077,3636,5355
2132,6367,3633,6684,5464,3200,2663,4074,2482
3142,4215,5848,5175,4920,3356,3146,5090,2743
2911,4419,5809,5708,1361,2308,2755,4596,6319
2847,3849,5701,5149,2927,5128,6701,2403,5919
3127,2968,4746,4109,2392,3808,4499,4749,2729
State Bench: 0,0,34,4aed
4,4,5,5,7,7,1,1,0,4,4,4,5,5,7,7,1,1,1,1,1,0,4,4,4,5,5,1,4,1,4,1,1,1,0,4,4,4,5,5,7,7,1,1,0,4,4,4,5,5,7,7,1,1,0,4,4,4,5,5,7,7,1,1,1,1,1,0,4,4,4,5,5,1,4,1,4,1,1,1,0,4,4,4,5,5,7,7,1,1,0,4,4,4,5,5,7,7,1,1,0,4,4,4,5,5,7,7,1,1,1,1,1,0,4,4,4,5,5,1,4,1,4,1,1,1,0,4,
4,4,5,5,7,7,1,1,0,4,4,4,5,5,7,7,1,1,1,1,1,0,4,4,4,5,5,1,4,1,4,1,1,1,0,4,4,4,5,5,7,7,1,1,0,4,4,4,5,5,7,7,1,1,0,4,4,4,5,5,7,7,1,1,1,1,1,0,4,4,4,5,5,1,4,1,4,1,1,1,0,4,4,4,5,5,7,7,1,1,0,4,4,4,5,5,7,7,1,1,0,4,4,4,5,5,7,7,1,1,1,1,1,0,4,4,4,5,5,1,4,1,4,1,1,1,0,4,
State Bench: 0,0,136,635e
4,4,5,5,7,7,1,1,0,4,4,4,5,5,7,7,1,1,1,1,1,0,4,4,4,5,5,1,4,1,4,1,1,1,0,4,4,4,5,5,7,7,1,1,0,4,4,4,5,5,7,7,1,1,0,4,4,4,5,5,7,7,1,1,1,1,1,0,4,4,4,5,5,1,4,1,4,1,1,1,0,4,4,4,5,5,7,7,1,1,0,4,4,4,5,5,7,7,1,1,0,4,4,4,5,5,7,7,1,1,1,1,1,0,4,4,4,5,5,1,4,1,4,1,1,1,0,4,
4,4,5,5,7,7,1,1,0,4,4,4,5,5,7,7,1,1,1,1,1,0,4,4,4,5,5,1,4,1,4,1,1,1,0,4,4,4,5,5,7,7,1,1,0,4,4,4,5,5,7,7,1,1,0,4,4,4,5,5,7,7,1,1,1,1,1,0,4,4,4,5,5,1,4,1,4,1,1,1,0,4,4,4,5,5,7,7,1,1,0,4,4,4,5,5,7,7,1,1,0,4,4,4,5,5,7,7,1,1,1,1,1,0,4,4,4,5,5,1,4,1,4,1,1,1,0,4,
State Bench: 0,0,34,c1a9
4,4,5,5,7,7,1,1,0,4,4,4,5,5,7,7,1,1,1,1,1,0,4,4,4,5,5,1,4,1,4,1,1,1,0,4,4,4,5,5,7,7,1,1,0,4,4,4,5,5,7,7,1,1,0,4,4,4,5,5,7,7,1,1,1,1,1,0,4,4,4,5,5,1,4,1,4,1,1,1,0,4,4,4,5,5,7,7,1,1,0,4,4,4,5,5,7,7,1,1,0,4,4,4,5,5,7,7,1,1,1,1,1,0,4,4,4,5,5,1,4,1,4,1,1,1,0,4,
4,4,5,5,7,7,1,1,0,4,4,4,5,5,7,7,1,1,1,1,1,0,4,4,4,5,5,1,4,1,4,1,1,1,0,4,4,4,5,5,7,7,1,1,0,4,4,4,5,5,7,7,1,1,0,4,4,4,5,5,7,7,1,1,1,1,1,0,4,4,4,5,5,1,4,1,4,1,1,1,0,4,4,4,5,5,7,7,1,1,0,4,4,4,5,5,7,7,1,1,0,4,4,4,5,5,7,7,1,1,1,1,1,0,4,4,4,5,5,1,4,1,4,1,1,1,0,4,
Matrix matrix_add_const [9x9]:
156,159,165,185,283,373,343,297,299
173,175,177,179,181,183,185,187,189
191,193,195,197,199,201,203,205,207
209,211,213,215,217,219,221,223,225
227,229,231,233,235,237,239,241,243
245,247,249,251,253,255,257,259,261
263,265,267,269,271,273,275,277,279
281,283,285,287,289,291,293,295,297
299,301,303,305,307,309,311,313,315
Matrix matrix_mul_const [9x9]:
23868,24327,25245,28305,43299,57069,52479,45441,45747
26469,26775,27081,27387,27693,27999,28305,28611,28917
29223,29529,29835,30141,30447,30753,31059,31365,31671
31977,32283,32589,32895,33201,33507,33813,34119,34425
34731,35037,35343,35649,35955,36261,36567,36873,37179
37485,37791,38097,38403,38709,39015,39321,39627,39933
40239,40545,40851,41157,41463,41769,42075,42381,42687
42993,43299,43605,43911,44217,44523,44829,45135,45441
45747,46053,46359,46665,46971,47277,47583,47889,48195
Matrix matrix_mul_vect [9x9]:
-14509642,-9348870,-10241562,-11134254,-12026946,-12919638,-13812330,-14705022,-15597714
26469,26775,27081,27387,27693,27999,28305,28611,28917
29223,29529,29835,30141,30447,30753,31059,31365,31671
31977,32283,32589,32895,33201,33507,33813,34119,34425
34731,35037,35343,35649,35955,36261,36567,36873,37179
37485,37791,38097,38403,38709,39015,39321,39627,39933
40239,40545,40851,41157,41463,41769,42075,42381,42687
42993,43299,43605,43911,44217,44523,44829,45135,45441
45747,46053,46359,46665,46971,47277,47583,47889,48195
Matrix matrix_mul_matrix [9x9]:
3964426,954746,-59970,-2008694,1753310,3802962,-4312922,-9030598,-4616946
4317526,1004128,-113551,-2259208,1880629,4136458,-4791353,-10024012,-5173743
4761298,1107088,-125557,-2491912,2073751,4561726,-5283491,-11060596,-5712501
5205070,1210048,-137563,-2724616,2266873,4986994,-5775629,-12097180,-6251259
5648842,1313008,-149569,-2957320,2459995,5412262,-6267767,-13133764,-6790017
6092614,1415968,-161575,-3190024,2653117,5837530,-6759905,-14170348,-7328775
6536386,1518928,-173581,-3422728,2846239,6262798,-7252043,-15206932,-7867533
6980158,1621888,-185587,-3655432,3039361,6688066,-7744181,-16243516,-8406291
7423930,1724848,-197593,-3888136,3232483,7113334,-8236319,-17280100,-8945049
Matrix matrix_mul_matrix_bitextract [9x9]:
4404,3869,5165,7020,5199,5030,1987,4373,5587
3554,4635,3898,4687,5312,3780,3830,4266,2789
2967,4695,6387,5756,2405,3152,3023,3716,5349
4091,2085,4081,3757,3089,3632,6467,3075,7895
2447,3236,5622,5045,2694,3148,5257,6357,2633
4026,4952,5490,4625,3292,3019,5828,3991,3961
2811,4923,5082,3702,4505,3487,3312,3328,5638
3698,2930,1945,6900,4253,7030,2867,5076,4731
2071,5807,3352,4334,6063,6467,2470,4733,4172
State Bench: 0,0,136,9c9f
4,4,5,5,7,7,1,1,0,4,4,4,5,5,7,7,1,1,1,1,1,0,4,4,4,5,5,1,4,1,4,1,1,1,0,4,4,4,5,5,7,7,1,1,0,4,4,4,5,5,7,7,1,1,0,4,4,4,5,5,7,7,1,1,1,1,1,0,4,4,4,5,5,1,4,1,4,1,1,1,0,4,4,4,5,5,7,7,1,1,0,4,4,4,5,5,7,7,1,1,0,4,4,4,5,5,7,7,1,1,1,1,1,0,4,4,4,5,5,1,4,1,4,1,1,1,0,4,
4,4,5,5,7,7,1,1,0,4,4,4,5,5,7,7,1,1,1,1,1,0,4,4,4,5,5,1,4,1,4,1,1,1,0,4,4,4,5,5,7,7,1,1,0,4,4,4,5,5,7,7,1,1,0,4,4,4,5,5,7,7,1,1,1,1,1,0,4,4,4,5,5,1,4,1,4,1,1,1,0,4,4,4,5,5,7,7,1,1,0,4,4,4,5,5,7,7,1,1,0,4,4,4,5,5,7,7,1,1,1,1,1,0,4,4,4,5,5,1,4,1,4,1,1,1,0,4,
List sort 1: 1fe5
List sort 2: bf8a
List find 0: [0,0,1]
List find 1: [1,1,1]
List find 2: [2,2,1]
List find 3: [3,3,1]
List find 4: [4,4,1]
List find 5: [5,5,1]
List find 6: [6,6,1]
List find 7: [7,7,1]
List find 8: [8,8,1]
List find 9: [8,8,2]
List find 10: [8,9,2]
List find 11: [9,10,2]
List find 12: [9,11,2]
List find 13: [10,12,2]
List find 14: [10,13,2]
List find 15: [11,14,2]
List find 16: [11,15,2]
List find 17: [12,16,2]
List find 18: [12,16,3]
List find 19: [13,17,3]
List find 20: [14,18,3]
List find 21: [15,19,3]
List find 22: [16,20,3]
List find 23: [17,21,3]
List find 24: [18,22,3]
List find 25: [19,23,3]
List find 26: [20,24,3]
List find 27: [21,24,4]
List find 28: [21,25,4]
List find 29: [22,26,4]
List find 30: [22,27,4]
List find 31: [23,28,4]
List find 32: [23,29,4]
List find 33: [24,30,4]
List find 34: [24,31,4]
List find 35: [25,32,4]
List find 36: [25,32,5]
List find 37: [26,33,5]
List find 38: [27,34,5]
List find 39: [28,35,5]
List find 40: [29,36,5]
List find 41: [30,37,5]
List find 42: [31,38,5]
List find 43: [32,39,5]
List find 44: [33,40,5]
List find 45: [33,40,6]
List find 46: [33,41,6]
List find 47: [34,42,6]
List find 48: [34,43,6]
List find 49: [35,44,6]
List find 50: [35,45,6]
List find 51: [36,46,6]
List find 52: [36,47,6]
List find 53: [37,48,6]
List find 54: [37,48,7]
List find 55: [38,49,7]
List find 56: [39,50,7]
List find 57: [40,51,7]
List find 58: [41,52,7]
List find 59: [42,53,7]
List find 60: [43,54,7]
List find 61: [44,55,7]
List find 62: [45,56,7]
List find 63: [46,56,8]
List find 64: [46,56,9]
List find 65: [47,57,9]
List find 66: [48,58,9]
List find 67: [49,59,9]
List find 68: [50,60,9]
List find 69: [51,61,9]
List find 70: [52,62,9]
List find 71: [53,63,9]
List find 72: [54,64,9]
List find 73: [54,64,10]
List find 74: [54,65,10]
List find 75: [55,66,10]
List find 76: [55,67,10]
List find 77: [56,68,10]
List find 78: [56,69,10]
List find 79: [57,70,10]
List find 80: [57,71,10]
List find 81: [58,72,10]
List find 82: [58,72,11]
List find 83: [59,73,11]
List find 84: [60,74,11]
List find 85: [61,75,11]
List find 86: [62,76,11]
List find 87: [63,77,11]
List find 88: [64,78,11]
List find 89: [65,79,11]
List find 90: [66,80,11]
List find 91: [67,80,12]
List find 92: [67,81,12]
List find 93: [68,82,12]
List find 94: [68,83,12]
List find 95: [69,84,12]
List find 96: [69,85,12]
List find 97: [70,86,12]
List find 98: [70,87,12]
List find 99: [71,88,12]
List find 100: [71,88,13]
List find 101: [72,89,13]
List sort 1: ac16
List sort 2: 8036
2K performance run parameters for coremark.
CoreMark Size    : 666
Total ticks      : 36633379
Total time (secs): 0
ERROR! Must execute for at least 10 secs for a valid result!
Iterations       : 1
Compiler version : GCC15.1.0
Compiler flags   : 
Memory location  : STACK
seedcrc          : 0xe9f5
[0]crclist       : 0xe714
[0]crcmatrix     : 0x1fd7
[0]crcstate      : 0x8e3a
[0]crcfinal      : 0xe714
Errors detected

------------------------------------------------------------------

Test Benchmark FINISHED: end of benchmark.


- /home/almondega/riscv-async-tcc/workspace/../rtl/tb/tb_ariscv_soc_top.sv:449: Verilog $finish
- S i m u l a t i o n   R e p o r t: Verilator 5.039 devel
- Verilator: $finish at 424ms; walltime 74.382 s; speed 5.772 ms/s
- Verilator: cpu 73.528 s on 1 threads; alloced 95 MB
